stm32f1xx_hal_msp.c:64:6:HAL_MspInit	24	static
stm32f1xx_hal_msp.c:90:6:HAL_RTC_MspInit	24	static
stm32f1xx_hal_msp.c:115:6:HAL_RTC_MspDeInit	16	static
stm32f1xx_hal_msp.c:137:6:HAL_UART_MspInit	40	static
stm32f1xx_hal_msp.c:179:6:HAL_UART_MspDeInit	16	static
