main.c:97:6:SetupOneshotTC72	8	static
main.c:118:6:GetMSBtempAndLSBTempFromTC72	64	static
main.c:150:5:main	8	static
main.c:197:6:SystemClock_Config	72	static
main.c:233:13:MX_SPI1_Init	8	static
main.c:271:13:MX_USART1_UART_Init	8	static
main.c:304:13:MX_GPIO_Init	32	static
main.c:331:6:Error_Handler	4	static,ignoring_inline_asm
